…
+     avg_arr_delay = mean(arr_delay, na.rm = TRUE),
+     n = n()
+   ) |>
+   arrange(desc(avg_arr_delay))
Error: object 'Answer' not found
> flights |>
+   group_by(carrier, dest) |>
+   summarize(
+     avg_arr_delay = mean(arr_delay, na.rm = TRUE),
+     n = n()
+   ) |>
+   arrange(desc(avg_arr_delay))
`summarise()` has grouped output by 'carrier'. You can override using the `.groups`
argument.
# A tibble: 314 × 4
# Groups:   carrier [16]
   carrier dest  avg_arr_delay     n
   <chr>   <chr>         <dbl> <int>
 1 UA      STL           110       2
 2 OO      ORD           107       1
 3 OO      DTW            68.5     2
 4 UA      RDU            56       1
 5 EV      CAE            42.8   113
 6 EV      TYS            41.2   323
 7 EV      PBI            40.7     6
 8 EV      TUL            33.7   315
 9 EV      OKC            30.6   346
10 UA      JAC            29.9    23
# ℹ 304 more rows
# ℹ Use `print(n = ...)` to see more rows
…
